-- Merging decision tree log ---
manifest
ADDED from /Users/Enrique/StudioProjects/ExoPlayer/demos/main/src/main/AndroidManifest.xml:17:1-93:12
INJECTED from /Users/Enrique/StudioProjects/ExoPlayer/demos/main/src/main/AndroidManifest.xml:17:1-93:12
INJECTED from /Users/Enrique/StudioProjects/ExoPlayer/demos/main/src/main/AndroidManifest.xml:17:1-93:12
MERGED from [:library-dash] /Users/Enrique/StudioProjects/ExoPlayer/library/dash/buildout/intermediates/manifests/full/debug/AndroidManifest.xml:17:1-24:12
MERGED from [:library-hls] /Users/Enrique/StudioProjects/ExoPlayer/library/hls/buildout/intermediates/manifests/full/debug/AndroidManifest.xml:17:1-24:12
MERGED from [:library-smoothstreaming] /Users/Enrique/StudioProjects/ExoPlayer/library/smoothstreaming/buildout/intermediates/manifests/full/debug/AndroidManifest.xml:17:1-24:12
MERGED from [:library-ui] /Users/Enrique/StudioProjects/ExoPlayer/library/ui/buildout/intermediates/manifests/full/debug/AndroidManifest.xml:17:1-24:12
MERGED from [:library-core] /Users/Enrique/StudioProjects/ExoPlayer/library/core/buildout/intermediates/manifests/full/debug/AndroidManifest.xml:17:1-26:12
MERGED from [com.android.support:support-media-compat:27.0.0] /Users/Enrique/.gradle/caches/transforms-1/files-1.1/support-media-compat-27.0.0.aar/6cd97c954c6e75c3f0210e59b263ba2d/AndroidManifest.xml:17:1-22:12
MERGED from [com.android.support:support-compat:27.0.0] /Users/Enrique/.gradle/caches/transforms-1/files-1.1/support-compat-27.0.0.aar/71c059235bd12f818dbf9e57c22512f0/AndroidManifest.xml:17:1-22:12
MERGED from [android.arch.lifecycle:runtime:1.0.0] /Users/Enrique/.gradle/caches/transforms-1/files-1.1/runtime-1.0.0.aar/476bcfba03e0ff0ca5b11b8617bcab6b/AndroidManifest.xml:17:1-30:12
INJECTED from /Users/Enrique/StudioProjects/ExoPlayer/demos/main/src/main/AndroidManifest.xml:17:1-93:12
INJECTED from /Users/Enrique/StudioProjects/ExoPlayer/demos/main/src/main/AndroidManifest.xml:17:1-93:12
	package
		ADDED from /Users/Enrique/StudioProjects/ExoPlayer/demos/main/src/main/AndroidManifest.xml:18:5-49
	android:versionName
		INJECTED from /Users/Enrique/StudioProjects/ExoPlayer/demos/main/src/main/AndroidManifest.xml
		ADDED from /Users/Enrique/StudioProjects/ExoPlayer/demos/main/src/main/AndroidManifest.xml:17:1-93:12
		INJECTED from /Users/Enrique/StudioProjects/ExoPlayer/demos/main/src/main/AndroidManifest.xml
	android:versionCode
		INJECTED from /Users/Enrique/StudioProjects/ExoPlayer/demos/main/src/main/AndroidManifest.xml
		ADDED from /Users/Enrique/StudioProjects/ExoPlayer/demos/main/src/main/AndroidManifest.xml:17:1-93:12
		INJECTED from /Users/Enrique/StudioProjects/ExoPlayer/demos/main/src/main/AndroidManifest.xml
	xmlns:android
		ADDED from /Users/Enrique/StudioProjects/ExoPlayer/demos/main/src/main/AndroidManifest.xml:17:11-69
uses-permission#android.permission.INTERNET
ADDED from /Users/Enrique/StudioProjects/ExoPlayer/demos/main/src/main/AndroidManifest.xml:20:3-64
	android:name
		ADDED from /Users/Enrique/StudioProjects/ExoPlayer/demos/main/src/main/AndroidManifest.xml:20:20-62
uses-permission#android.permission.ACCESS_NETWORK_STATE
ADDED from /Users/Enrique/StudioProjects/ExoPlayer/demos/main/src/main/AndroidManifest.xml:21:3-76
MERGED from [:library-core] /Users/Enrique/StudioProjects/ExoPlayer/library/core/buildout/intermediates/manifests/full/debug/AndroidManifest.xml:24:5-79
MERGED from [:library-core] /Users/Enrique/StudioProjects/ExoPlayer/library/core/buildout/intermediates/manifests/full/debug/AndroidManifest.xml:24:5-79
	android:name
		ADDED from /Users/Enrique/StudioProjects/ExoPlayer/demos/main/src/main/AndroidManifest.xml:21:20-74
uses-permission#android.permission.READ_EXTERNAL_STORAGE
ADDED from /Users/Enrique/StudioProjects/ExoPlayer/demos/main/src/main/AndroidManifest.xml:22:3-77
	android:name
		ADDED from /Users/Enrique/StudioProjects/ExoPlayer/demos/main/src/main/AndroidManifest.xml:22:20-75
uses-permission#android.permission.RECEIVE_BOOT_COMPLETED
ADDED from /Users/Enrique/StudioProjects/ExoPlayer/demos/main/src/main/AndroidManifest.xml:23:3-78
	android:name
		ADDED from /Users/Enrique/StudioProjects/ExoPlayer/demos/main/src/main/AndroidManifest.xml:23:20-76
uses-feature#android.software.leanback
ADDED from /Users/Enrique/StudioProjects/ExoPlayer/demos/main/src/main/AndroidManifest.xml:25:3-84
	android:required
		ADDED from /Users/Enrique/StudioProjects/ExoPlayer/demos/main/src/main/AndroidManifest.xml:25:58-82
	android:name
		ADDED from /Users/Enrique/StudioProjects/ExoPlayer/demos/main/src/main/AndroidManifest.xml:25:17-57
uses-feature#android.hardware.touchscreen
ADDED from /Users/Enrique/StudioProjects/ExoPlayer/demos/main/src/main/AndroidManifest.xml:26:3-87
	android:required
		ADDED from /Users/Enrique/StudioProjects/ExoPlayer/demos/main/src/main/AndroidManifest.xml:26:61-85
	android:name
		ADDED from /Users/Enrique/StudioProjects/ExoPlayer/demos/main/src/main/AndroidManifest.xml:26:17-60
uses-sdk
ADDED from /Users/Enrique/StudioProjects/ExoPlayer/demos/main/src/main/AndroidManifest.xml:27:3-14
INJECTED from /Users/Enrique/StudioProjects/ExoPlayer/demos/main/src/main/AndroidManifest.xml:27:3-14
INJECTED from /Users/Enrique/StudioProjects/ExoPlayer/demos/main/src/main/AndroidManifest.xml:27:3-14
MERGED from [:library-dash] /Users/Enrique/StudioProjects/ExoPlayer/library/dash/buildout/intermediates/manifests/full/debug/AndroidManifest.xml:20:5-22:41
MERGED from [:library-dash] /Users/Enrique/StudioProjects/ExoPlayer/library/dash/buildout/intermediates/manifests/full/debug/AndroidManifest.xml:20:5-22:41
MERGED from [:library-hls] /Users/Enrique/StudioProjects/ExoPlayer/library/hls/buildout/intermediates/manifests/full/debug/AndroidManifest.xml:20:5-22:41
MERGED from [:library-hls] /Users/Enrique/StudioProjects/ExoPlayer/library/hls/buildout/intermediates/manifests/full/debug/AndroidManifest.xml:20:5-22:41
MERGED from [:library-smoothstreaming] /Users/Enrique/StudioProjects/ExoPlayer/library/smoothstreaming/buildout/intermediates/manifests/full/debug/AndroidManifest.xml:20:5-22:41
MERGED from [:library-smoothstreaming] /Users/Enrique/StudioProjects/ExoPlayer/library/smoothstreaming/buildout/intermediates/manifests/full/debug/AndroidManifest.xml:20:5-22:41
MERGED from [:library-ui] /Users/Enrique/StudioProjects/ExoPlayer/library/ui/buildout/intermediates/manifests/full/debug/AndroidManifest.xml:20:5-22:41
MERGED from [:library-ui] /Users/Enrique/StudioProjects/ExoPlayer/library/ui/buildout/intermediates/manifests/full/debug/AndroidManifest.xml:20:5-22:41
MERGED from [:library-core] /Users/Enrique/StudioProjects/ExoPlayer/library/core/buildout/intermediates/manifests/full/debug/AndroidManifest.xml:20:5-22:41
MERGED from [:library-core] /Users/Enrique/StudioProjects/ExoPlayer/library/core/buildout/intermediates/manifests/full/debug/AndroidManifest.xml:20:5-22:41
MERGED from [com.android.support:support-media-compat:27.0.0] /Users/Enrique/.gradle/caches/transforms-1/files-1.1/support-media-compat-27.0.0.aar/6cd97c954c6e75c3f0210e59b263ba2d/AndroidManifest.xml:20:5-44
MERGED from [com.android.support:support-media-compat:27.0.0] /Users/Enrique/.gradle/caches/transforms-1/files-1.1/support-media-compat-27.0.0.aar/6cd97c954c6e75c3f0210e59b263ba2d/AndroidManifest.xml:20:5-44
MERGED from [com.android.support:support-compat:27.0.0] /Users/Enrique/.gradle/caches/transforms-1/files-1.1/support-compat-27.0.0.aar/71c059235bd12f818dbf9e57c22512f0/AndroidManifest.xml:20:5-44
MERGED from [com.android.support:support-compat:27.0.0] /Users/Enrique/.gradle/caches/transforms-1/files-1.1/support-compat-27.0.0.aar/71c059235bd12f818dbf9e57c22512f0/AndroidManifest.xml:20:5-44
MERGED from [android.arch.lifecycle:runtime:1.0.0] /Users/Enrique/.gradle/caches/transforms-1/files-1.1/runtime-1.0.0.aar/476bcfba03e0ff0ca5b11b8617bcab6b/AndroidManifest.xml:20:5-22:41
MERGED from [android.arch.lifecycle:runtime:1.0.0] /Users/Enrique/.gradle/caches/transforms-1/files-1.1/runtime-1.0.0.aar/476bcfba03e0ff0ca5b11b8617bcab6b/AndroidManifest.xml:20:5-22:41
INJECTED from /Users/Enrique/StudioProjects/ExoPlayer/demos/main/src/main/AndroidManifest.xml:27:3-14
INJECTED from /Users/Enrique/StudioProjects/ExoPlayer/demos/main/src/main/AndroidManifest.xml:27:3-14
	android:targetSdkVersion
		INJECTED from /Users/Enrique/StudioProjects/ExoPlayer/demos/main/src/main/AndroidManifest.xml
		ADDED from /Users/Enrique/StudioProjects/ExoPlayer/demos/main/src/main/AndroidManifest.xml:27:3-14
		INJECTED from /Users/Enrique/StudioProjects/ExoPlayer/demos/main/src/main/AndroidManifest.xml
	android:minSdkVersion
		INJECTED from /Users/Enrique/StudioProjects/ExoPlayer/demos/main/src/main/AndroidManifest.xml
		ADDED from /Users/Enrique/StudioProjects/ExoPlayer/demos/main/src/main/AndroidManifest.xml:27:3-14
		INJECTED from /Users/Enrique/StudioProjects/ExoPlayer/demos/main/src/main/AndroidManifest.xml
application
ADDED from /Users/Enrique/StudioProjects/ExoPlayer/demos/main/src/main/AndroidManifest.xml:29:3-91:17
MERGED from [android.arch.lifecycle:runtime:1.0.0] /Users/Enrique/.gradle/caches/transforms-1/files-1.1/runtime-1.0.0.aar/476bcfba03e0ff0ca5b11b8617bcab6b/AndroidManifest.xml:24:5-28:19
MERGED from [android.arch.lifecycle:runtime:1.0.0] /Users/Enrique/.gradle/caches/transforms-1/files-1.1/runtime-1.0.0.aar/476bcfba03e0ff0ca5b11b8617bcab6b/AndroidManifest.xml:24:5-28:19
	android:label
		ADDED from /Users/Enrique/StudioProjects/ExoPlayer/demos/main/src/main/AndroidManifest.xml:30:7-47
	android:largeHeap
		ADDED from /Users/Enrique/StudioProjects/ExoPlayer/demos/main/src/main/AndroidManifest.xml:33:7-31
	android:icon
		ADDED from /Users/Enrique/StudioProjects/ExoPlayer/demos/main/src/main/AndroidManifest.xml:31:7-41
	android:allowBackup
		ADDED from /Users/Enrique/StudioProjects/ExoPlayer/demos/main/src/main/AndroidManifest.xml:34:7-34
	android:banner
		ADDED from /Users/Enrique/StudioProjects/ExoPlayer/demos/main/src/main/AndroidManifest.xml:32:7-43
	android:name
		ADDED from /Users/Enrique/StudioProjects/ExoPlayer/demos/main/src/main/AndroidManifest.xml:35:7-72
activity#com.google.android.exoplayer2.demo.SampleChooserActivity
ADDED from /Users/Enrique/StudioProjects/ExoPlayer/demos/main/src/main/AndroidManifest.xml:37:5-57:16
	android:label
		ADDED from /Users/Enrique/StudioProjects/ExoPlayer/demos/main/src/main/AndroidManifest.xml:39:9-49
	android:configChanges
		ADDED from /Users/Enrique/StudioProjects/ExoPlayer/demos/main/src/main/AndroidManifest.xml:38:9-47
	android:name
		ADDED from /Users/Enrique/StudioProjects/ExoPlayer/demos/main/src/main/AndroidManifest.xml:37:15-86
intent-filter#action:name:android.intent.action.MAIN+category:name:android.intent.category.LAUNCHER+category:name:android.intent.category.LEANBACK_LAUNCHER
ADDED from /Users/Enrique/StudioProjects/ExoPlayer/demos/main/src/main/AndroidManifest.xml:40:7-44:23
action#android.intent.action.MAIN
ADDED from /Users/Enrique/StudioProjects/ExoPlayer/demos/main/src/main/AndroidManifest.xml:41:9-60
	android:name
		ADDED from /Users/Enrique/StudioProjects/ExoPlayer/demos/main/src/main/AndroidManifest.xml:41:17-58
category#android.intent.category.LAUNCHER
ADDED from /Users/Enrique/StudioProjects/ExoPlayer/demos/main/src/main/AndroidManifest.xml:42:9-68
	android:name
		ADDED from /Users/Enrique/StudioProjects/ExoPlayer/demos/main/src/main/AndroidManifest.xml:42:19-66
category#android.intent.category.LEANBACK_LAUNCHER
ADDED from /Users/Enrique/StudioProjects/ExoPlayer/demos/main/src/main/AndroidManifest.xml:43:9-77
	android:name
		ADDED from /Users/Enrique/StudioProjects/ExoPlayer/demos/main/src/main/AndroidManifest.xml:43:19-75
intent-filter#action:name:android.intent.action.VIEW+category:name:android.intent.category.BROWSABLE+category:name:android.intent.category.DEFAULT+data:host:*+data:pathPattern:.*\\.exolist\\.json+data:scheme:asset+data:scheme:content+data:scheme:file+data:scheme:http+data:scheme:https
ADDED from /Users/Enrique/StudioProjects/ExoPlayer/demos/main/src/main/AndroidManifest.xml:45:7-56:23
action#android.intent.action.VIEW
ADDED from /Users/Enrique/StudioProjects/ExoPlayer/demos/main/src/main/AndroidManifest.xml:46:9-60
	android:name
		ADDED from /Users/Enrique/StudioProjects/ExoPlayer/demos/main/src/main/AndroidManifest.xml:46:17-58
category#android.intent.category.DEFAULT
ADDED from /Users/Enrique/StudioProjects/ExoPlayer/demos/main/src/main/AndroidManifest.xml:47:9-67
	android:name
		ADDED from /Users/Enrique/StudioProjects/ExoPlayer/demos/main/src/main/AndroidManifest.xml:47:19-65
category#android.intent.category.BROWSABLE
ADDED from /Users/Enrique/StudioProjects/ExoPlayer/demos/main/src/main/AndroidManifest.xml:48:9-69
	android:name
		ADDED from /Users/Enrique/StudioProjects/ExoPlayer/demos/main/src/main/AndroidManifest.xml:48:19-67
data
ADDED from /Users/Enrique/StudioProjects/ExoPlayer/demos/main/src/main/AndroidManifest.xml:49:9-38
	android:host
		ADDED from /Users/Enrique/StudioProjects/ExoPlayer/demos/main/src/main/AndroidManifest.xml:54:15-31
	android:scheme
		ADDED from /Users/Enrique/StudioProjects/ExoPlayer/demos/main/src/main/AndroidManifest.xml:49:15-36
	android:pathPattern
		ADDED from /Users/Enrique/StudioProjects/ExoPlayer/demos/main/src/main/AndroidManifest.xml:55:15-56
activity#com.google.android.exoplayer2.demo.PlayerActivity
ADDED from /Users/Enrique/StudioProjects/ExoPlayer/demos/main/src/main/AndroidManifest.xml:59:5-77:16
	android:label
		ADDED from /Users/Enrique/StudioProjects/ExoPlayer/demos/main/src/main/AndroidManifest.xml:62:9-49
	android:launchMode
		ADDED from /Users/Enrique/StudioProjects/ExoPlayer/demos/main/src/main/AndroidManifest.xml:61:9-39
	android:configChanges
		ADDED from /Users/Enrique/StudioProjects/ExoPlayer/demos/main/src/main/AndroidManifest.xml:60:9-118
	android:theme
		ADDED from /Users/Enrique/StudioProjects/ExoPlayer/demos/main/src/main/AndroidManifest.xml:63:9-43
	android:name
		ADDED from /Users/Enrique/StudioProjects/ExoPlayer/demos/main/src/main/AndroidManifest.xml:59:15-79
intent-filter#action:name:com.google.android.exoplayer.demo.action.VIEW+category:name:android.intent.category.DEFAULT+data:scheme:asset+data:scheme:content+data:scheme:file+data:scheme:http+data:scheme:https
ADDED from /Users/Enrique/StudioProjects/ExoPlayer/demos/main/src/main/AndroidManifest.xml:64:7-72:23
action#com.google.android.exoplayer.demo.action.VIEW
ADDED from /Users/Enrique/StudioProjects/ExoPlayer/demos/main/src/main/AndroidManifest.xml:65:9-79
	android:name
		ADDED from /Users/Enrique/StudioProjects/ExoPlayer/demos/main/src/main/AndroidManifest.xml:65:17-77
intent-filter#action:name:com.google.android.exoplayer.demo.action.VIEW_LIST+category:name:android.intent.category.DEFAULT
ADDED from /Users/Enrique/StudioProjects/ExoPlayer/demos/main/src/main/AndroidManifest.xml:73:7-76:23
action#com.google.android.exoplayer.demo.action.VIEW_LIST
ADDED from /Users/Enrique/StudioProjects/ExoPlayer/demos/main/src/main/AndroidManifest.xml:74:9-84
	android:name
		ADDED from /Users/Enrique/StudioProjects/ExoPlayer/demos/main/src/main/AndroidManifest.xml:74:17-82
service#com.google.android.exoplayer2.demo.DemoDownloadService
ADDED from /Users/Enrique/StudioProjects/ExoPlayer/demos/main/src/main/AndroidManifest.xml:79:5-85:15
	android:exported
		ADDED from /Users/Enrique/StudioProjects/ExoPlayer/demos/main/src/main/AndroidManifest.xml:80:9-33
	android:name
		ADDED from /Users/Enrique/StudioProjects/ExoPlayer/demos/main/src/main/AndroidManifest.xml:79:14-83
intent-filter#action:name:com.google.android.exoplayer.downloadService.action.INIT+category:name:android.intent.category.DEFAULT
ADDED from /Users/Enrique/StudioProjects/ExoPlayer/demos/main/src/main/AndroidManifest.xml:81:7-84:23
action#com.google.android.exoplayer.downloadService.action.INIT
ADDED from /Users/Enrique/StudioProjects/ExoPlayer/demos/main/src/main/AndroidManifest.xml:82:9-90
	android:name
		ADDED from /Users/Enrique/StudioProjects/ExoPlayer/demos/main/src/main/AndroidManifest.xml:82:17-88
service#com.google.android.exoplayer2.scheduler.PlatformScheduler$PlatformSchedulerService
ADDED from /Users/Enrique/StudioProjects/ExoPlayer/demos/main/src/main/AndroidManifest.xml:87:5-89:34
	android:exported
		ADDED from /Users/Enrique/StudioProjects/ExoPlayer/demos/main/src/main/AndroidManifest.xml:89:9-32
	android:permission
		ADDED from /Users/Enrique/StudioProjects/ExoPlayer/demos/main/src/main/AndroidManifest.xml:88:9-65
	android:name
		ADDED from /Users/Enrique/StudioProjects/ExoPlayer/demos/main/src/main/AndroidManifest.xml:87:14-111
meta-data#android.arch.lifecycle.VERSION
ADDED from [android.arch.lifecycle:runtime:1.0.0] /Users/Enrique/.gradle/caches/transforms-1/files-1.1/runtime-1.0.0.aar/476bcfba03e0ff0ca5b11b8617bcab6b/AndroidManifest.xml:25:9-27:47
	android:value
		ADDED from [android.arch.lifecycle:runtime:1.0.0] /Users/Enrique/.gradle/caches/transforms-1/files-1.1/runtime-1.0.0.aar/476bcfba03e0ff0ca5b11b8617bcab6b/AndroidManifest.xml:27:13-44
	android:name
		ADDED from [android.arch.lifecycle:runtime:1.0.0] /Users/Enrique/.gradle/caches/transforms-1/files-1.1/runtime-1.0.0.aar/476bcfba03e0ff0ca5b11b8617bcab6b/AndroidManifest.xml:26:13-58
